module candidateApp2

go 1.19

require (
	github.com/ahmetb/go-linq/v3 v3.2.0
	github.com/golang/mock v1.6.0
	github.com/labstack/echo/v4 v4.9.0
	github.com/labstack/gommon v0.3.1
	github.com/stretchr/testify v1.8.0
	go.mongodb.org/mongo-driver v1.10.2
	go.uber.org/dig v1.15.0
)

require (
	github.com/Azure/go-ansiterm v0.0.0-20210617225240-d185dfc1b5a1 // indirect
	github.com/Microsoft/go-winio v0.5.2 // indirect
	github.com/Microsoft/hcsshim v0.9.4 // indirect
	github.com/cenkalti/backoff/v4 v4.1.3 // indirect
	github.com/containerd/cgroups v1.0.4 // indirect
	github.com/containerd/containerd v1.6.8 // indirect
	github.com/docker/distribution v2.8.1+incompatible // indirect
	github.com/docker/docker v20.10.17+incompatible // indirect
	github.com/docker/go-connections v0.4.0 // indirect
	github.com/docker/go-units v0.5.0 // indirect
	github.com/gogo/protobuf v1.3.2 // indirect
	github.com/golang/groupcache v0.0.0-20210331224755-41bb18bfe9da // indirect
	github.com/golang/protobuf v1.5.2 // indirect
	github.com/google/uuid v1.3.0 // indirect
	github.com/magiconair/properties v1.8.6 // indirect
	github.com/moby/sys/mount v0.3.3 // indirect
	github.com/moby/sys/mountinfo v0.6.2 // indirect
	github.com/moby/term v0.0.0-20210619224110-3f7ff695adc6 // indirect
	github.com/morikuni/aec v1.0.0 // indirect
	github.com/opencontainers/go-digest v1.0.0 // indirect
	github.com/opencontainers/image-spec v1.0.3-0.20211202183452-c5a74bcca799 // indirect
	github.com/opencontainers/runc v1.1.3 // indirect
	github.com/sirupsen/logrus v1.8.1 // indirect
	go.opencensus.io v0.23.0 // indirect
	google.golang.org/genproto v0.0.0-20220617124728-180714bec0ad // indirect
	google.golang.org/grpc v1.47.0 // indirect
	google.golang.org/protobuf v1.28.0 // indirect
)

require (
	github.com/davecgh/go-spew v1.1.1 // indirect
	github.com/golang-jwt/jwt v3.2.2+incompatible // indirect
	github.com/golang/snappy v0.0.4 // indirect
	github.com/klauspost/compress v1.15.11 // indirect
	github.com/mattn/go-colorable v0.1.13 // indirect
	github.com/mattn/go-isatty v0.0.16 // indirect
	github.com/montanaflynn/stats v0.6.6 // indirect
	github.com/pkg/errors v0.9.1 // indirect
	github.com/pmezard/go-difflib v1.0.0 // indirect
	github.com/testcontainers/testcontainers-go v0.14.0
	github.com/tidwall/pretty v1.2.0 // indirect
	github.com/valyala/bytebufferpool v1.0.0 // indirect
	github.com/valyala/fasttemplate v1.2.1 // indirect
	github.com/xdg-go/pbkdf2 v1.0.0 // indirect
	github.com/xdg-go/scram v1.1.1 // indirect
	github.com/xdg-go/stringprep v1.0.3 // indirect
	github.com/youmark/pkcs8 v0.0.0-20201027041543-1326539a0a0a // indirect
	golang.org/x/crypto v0.0.0-20220926161630-eccd6366d1be // indirect
	golang.org/x/net v0.0.0-20220930213112-107f3e3c3b0b // indirect
	golang.org/x/sync v0.0.0-20220929204114-8fcdb60fdcc0 // indirect
	golang.org/x/sys v0.0.0-20220928140112-f11e5e49a4ec // indirect
	golang.org/x/text v0.3.7 // indirect
	golang.org/x/time v0.0.0-20220922220347-f3bd1da661af // indirect
	gopkg.in/yaml.v3 v3.0.1 // indirect
)
